<svg viewBox="0 0 174 48" fill="none" xmlns="http://www.w3.org/2000/svg">
  <g>
    <path d="M83.3552 11.4206H64.5428C59.1622 11.4206 54.7858 15.798 54.7858 21.1786C54.7858 26.5582 59.1622 30.9363 64.5428 30.9363H83.3552C88.736 30.9363 93.1129 26.5582 93.1129 21.1786C93.1129 15.798 88.736 11.4206 83.3552 11.4206ZM64.5428 17.3311H83.3552C85.4764 17.3311 87.2026 19.0575 87.2026 21.1786C87.2026 23.2994 85.4764 25.0248 83.3552 25.0248H64.5428C62.4217 25.0248 60.6965 23.2994 60.6965 21.1786C60.6965 19.0575 62.4217 17.3311 64.5428 17.3311ZM157.289 38.0322H150.789V11.9614H157.289V14.0084C158.677 12.2617 160.569 11.3863 162.963 11.3863C164.279 11.3863 165.505 11.6441 166.643 12.159C167.779 12.6736 168.767 13.374 169.605 14.2591C170.443 15.1443 171.095 16.1863 171.561 17.3834C172.028 18.5806 172.262 19.8606 172.262 21.2253C172.262 22.5892 172.028 23.8593 171.561 25.0319C171.095 26.2048 170.449 27.2342 169.623 28.1194C168.798 29.0045 167.821 29.6995 166.697 30.2017C165.571 30.7037 164.35 30.9561 163.034 30.9561C160.736 30.9561 158.82 30.1665 157.289 28.5864V38.0322ZM165.475 21.2253C165.475 20.651 165.373 20.1066 165.171 19.591C164.967 19.0773 164.673 18.6283 164.291 18.2453C163.908 17.863 163.459 17.5574 162.945 17.3303C162.429 17.1021 161.873 16.9877 161.275 16.9877C160.701 16.9877 160.161 17.0959 159.659 17.3113C159.156 17.5267 158.718 17.826 158.349 18.2092C157.977 18.5923 157.678 19.0412 157.451 19.5557C157.223 20.0706 157.109 20.6142 157.109 21.1902C157.109 21.7633 157.217 22.3035 157.433 22.8055C157.648 23.3076 157.947 23.7448 158.331 24.1152C158.713 24.4874 159.162 24.7869 159.676 25.0139C160.191 25.2412 160.736 25.3546 161.311 25.3546C161.885 25.3546 162.424 25.2473 162.927 25.0319C163.429 24.8166 163.865 24.5165 164.237 24.1342C164.608 23.752 164.906 23.3076 165.135 22.8055C165.362 22.3035 165.475 21.776 165.475 21.2253ZM134.841 22.2665C134.841 25.0672 136.157 26.4679 138.791 26.4679C140.202 26.4679 141.269 25.8928 141.986 24.7445H148.27C147 28.9576 143.829 31.0644 138.755 31.0644C137.198 31.0644 135.774 30.8298 134.481 30.3638C133.188 29.8969 132.08 29.2325 131.16 28.3708C130.238 27.5091 129.526 26.4806 129.024 25.2826C128.521 24.0865 128.269 22.746 128.269 21.2615C128.269 19.7297 128.508 18.347 128.988 17.114C129.465 15.8807 130.149 14.8343 131.034 13.9726C131.92 13.1099 132.991 12.4464 134.247 11.9804C135.505 11.5124 136.923 11.2791 138.502 11.2791C140.059 11.2791 141.46 11.5124 142.704 11.9804C143.948 12.4464 145.002 13.1226 145.864 14.0084C146.726 14.8939 147.383 15.9773 147.838 17.2573C148.293 18.5382 148.521 19.9813 148.521 21.585V22.2665H134.841ZM142.452 18.4967C142.237 17.5873 141.794 16.857 141.124 16.3063C140.454 15.7556 139.639 15.4798 138.682 15.4798C137.677 15.4798 136.857 15.7437 136.222 16.2701C135.589 16.7976 135.187 17.5386 135.02 18.4967H142.452ZM127.245 17.3834H122.937V30.3821H116.438V17.3834H112.128V11.9614H127.245V17.3834ZM109.807 17.9226C108.681 17.1553 107.545 16.7733 106.395 16.7733C105.774 16.7733 105.193 16.8806 104.654 17.0959C104.116 17.3113 103.643 17.617 103.235 18.0109C102.829 18.4066 102.511 18.8736 102.284 19.4126C102.056 19.9506 101.943 20.5556 101.943 21.2253C101.943 21.8716 102.056 22.4639 102.284 23.0029C102.511 23.5409 102.823 24.0079 103.219 24.4036C103.613 24.7986 104.085 25.1032 104.636 25.3188C105.188 25.5342 105.774 25.6422 106.395 25.6422C107.616 25.6422 108.754 25.224 109.807 24.3848V29.9151C108.203 30.6091 106.683 30.9561 105.247 30.9561C103.906 30.9561 102.631 30.7289 101.423 30.2738C100.214 29.8193 99.1482 29.1668 98.2269 28.3178C97.3056 27.4676 96.569 26.4499 96.0183 25.2645C95.4676 24.081 95.1926 22.7569 95.1926 21.2975C95.1926 19.8372 95.4557 18.5022 95.9833 17.2933C96.5096 16.0854 97.227 15.0434 98.1366 14.17C99.0462 13.2964 100.13 12.6143 101.386 12.1229C102.644 11.6324 103.99 11.3863 105.426 11.3863C107.006 11.3863 108.466 11.7227 109.807 12.3923V17.9226ZM38.1618 38.0322H31.6627V11.9614H38.1618V14.0084C39.549 12.2617 41.4411 11.3863 43.8353 11.3863C45.1513 11.3863 46.3783 11.6441 47.5159 12.159C48.6518 12.6736 49.6396 13.374 50.4779 14.2591C51.3152 15.1443 51.9679 16.1863 52.4349 17.3834C52.9018 18.5806 53.1352 19.8606 53.1352 21.2253C53.1352 22.5892 52.9018 23.8593 52.4349 25.0319C51.9679 26.2048 51.3216 27.2342 50.4959 28.1194C49.6702 29.0045 48.6941 29.6995 47.5699 30.2017C46.4442 30.7037 45.2226 30.9561 43.9074 30.9561C41.6089 30.9561 39.6933 30.1665 38.1618 28.5864V38.0322ZM46.3484 21.2253C46.3484 20.651 46.2466 20.1066 46.0439 19.591C45.8392 19.0773 45.5463 18.6283 45.163 18.2453C44.781 17.863 44.331 17.5574 43.8173 17.3303C43.3026 17.1021 42.7456 16.9877 42.147 16.9877C41.5737 16.9877 41.0347 17.0959 40.5317 17.3113C40.0287 17.5267 39.5916 17.826 39.222 18.2092C38.8497 18.5923 38.5503 19.0412 38.3241 19.5557C38.096 20.0706 37.9814 20.6142 37.9814 21.1902C37.9814 21.7633 38.0907 22.3035 38.3061 22.8055C38.5207 23.3076 38.8208 23.7448 39.203 24.1152C39.5853 24.4874 40.035 24.7869 40.5497 25.0139C41.0644 25.2412 41.6089 25.3546 42.1832 25.3546C42.7583 25.3546 43.2963 25.2473 43.7993 25.0319C44.3023 24.8166 44.7386 24.5165 45.11 24.1342C45.4805 23.752 45.7796 23.3076 46.0069 22.8055C46.2349 22.3035 46.3484 21.776 46.3484 21.2253ZM16.9939 30.3821V11.9614H29.8869V17.3834H23.4571V30.3821H16.9939Z" fill="#323231"/>
    <path d="M6.55062 20.9395C5.99714 20.58 5.53432 20.2138 5.16137 19.8403C4.78803 19.4675 4.49803 19.0532 4.29057 18.5969C4.08292 18.1406 3.93821 17.6224 3.85507 17.042C3.77233 16.461 3.73056 15.784 3.73056 15.0102V8.04457C3.73056 7.46357 3.68938 6.99402 3.60644 6.63473C3.5235 6.27545 3.3782 5.9989 3.17114 5.80511C2.96368 5.6119 2.67368 5.48838 2.30034 5.43216C1.9268 5.37673 1.45032 5.34922 0.869918 5.34922H-0.000488281V0.000488281H3.56467C5.69308 0.000488281 7.25514 0.50547 8.25006 1.51405C9.24517 2.52263 9.74283 4.27116 9.74283 6.75885V14.5955C9.74283 15.8952 9.93643 16.8419 10.3236 17.4355C10.7102 18.0306 11.9518 18.4245 12.8921 18.6175V23.7176C11.1778 24.105 9.74283 25.2933 9.74283 27.2834V35.1204C9.74283 37.5521 9.26635 39.2873 8.31261 40.3236C7.35867 41.3603 5.74831 41.878 3.48232 41.878H-0.000488281V36.4881H0.828149C1.43587 36.4881 1.93333 36.4603 2.32132 36.4055C2.70733 36.3497 3.00545 36.2252 3.21231 36.0322C3.41997 35.8388 3.55814 35.5618 3.62762 35.2029C3.69592 34.8436 3.73056 34.3737 3.73056 33.7931V26.8271C3.73056 25.9978 3.77886 25.2933 3.87586 24.7127C3.97226 24.1317 4.12468 23.6212 4.33214 23.1784C4.5396 22.7365 4.82267 22.3426 5.18196 21.9968C5.54085 21.6516 5.99714 21.2992 6.55062 20.9395Z" fill="#BE2BE9"/>
    <path d="M86.3498 45.5459V44.0004C86.3498 43.9418 86.3025 43.8951 86.2441 43.8951H84.6834C84.6254 43.8951 84.5779 43.8472 84.5779 43.7886V43.3862C84.5779 43.3282 84.6254 43.2803 84.6834 43.2803H86.2441C86.3025 43.2803 86.3498 43.233 86.3498 43.1746V41.6293C86.3498 41.5713 86.3973 41.5234 86.4553 41.5234H86.8745C86.9327 41.5234 86.98 41.5713 86.98 41.6293V43.1746C86.98 43.233 87.0272 43.2803 87.0854 43.2803H88.646C88.7046 43.2803 88.7517 43.3282 88.7517 43.3862V43.7886C88.7517 43.8472 88.7046 43.8951 88.646 43.8951H87.0854C87.0272 43.8951 86.98 43.9418 86.98 44.0004V45.5459C86.98 45.6041 86.9327 45.652 86.8745 45.652H86.4553C86.3973 45.652 86.3498 45.6041 86.3498 45.5459Z" fill="#FFE53D"/>
    <path d="M56.293 45.6695V41.9209H54.8542V41.5358H58.1369V41.9209H56.6982V45.6695H56.293ZM59.307 42.0679C59.7225 41.6524 60.2374 41.4448 60.8521 41.4448C61.4667 41.4448 61.9818 41.6524 62.3971 42.0679C62.8126 42.4832 63.0203 42.9981 63.0203 43.613C63.0203 44.2276 62.8126 44.7425 62.3971 45.1578C61.9818 45.5733 61.4667 45.781 60.8521 45.781C60.2374 45.781 59.7225 45.5733 59.307 45.1578C58.8917 44.7425 58.6839 44.2276 58.6839 43.613C58.6839 42.9981 58.8917 42.4832 59.307 42.0679ZM59.6111 44.8793C59.9452 45.2237 60.359 45.3959 60.8521 45.3959C61.3452 45.3959 61.7589 45.2237 62.093 44.8793C62.4276 44.5348 62.5947 44.1126 62.5947 43.613C62.5947 43.1131 62.4276 42.6909 62.093 42.3465C61.7589 42.002 61.3452 41.8298 60.8521 41.8298C60.359 41.8298 59.9452 42.002 59.6111 42.3465C59.2766 42.6909 59.1095 43.1131 59.1095 43.613C59.1095 44.1126 59.2766 44.5348 59.6111 44.8793ZM64.2157 41.5358H65.5632C65.9482 41.5358 66.242 41.617 66.4445 41.7791C66.6878 41.9749 66.8093 42.2384 66.8093 42.5694C66.8093 42.9476 66.6573 43.2345 66.3534 43.4305C66.5425 43.4576 66.7113 43.5352 66.86 43.6634C67.0963 43.8729 67.2145 44.1498 67.2145 44.4943C67.2145 44.8793 67.076 45.1764 66.7992 45.3858C66.5559 45.5749 66.2182 45.6695 65.7859 45.6695H64.2157V41.5358ZM64.6209 43.3394H65.5632C65.813 43.3394 66.009 43.2818 66.1507 43.1672C66.3196 43.032 66.4041 42.8497 66.4041 42.62C66.4041 42.3971 66.3196 42.2182 66.1507 42.083C66.0157 41.9749 65.8199 41.9209 65.5632 41.9209H64.6209V43.3394ZM64.6209 45.2845H65.7859C66.0967 45.2845 66.333 45.2237 66.4954 45.1022C66.6909 44.9535 66.7891 44.7476 66.7891 44.4842C66.7891 44.2409 66.6979 44.0485 66.5156 43.9067C66.3534 43.785 66.1103 43.7244 65.7859 43.7244H64.6209V45.2845ZM71.7736 42.2552V41.5358H72.1788V45.6695H71.7736V44.93C71.4021 45.4973 70.8652 45.781 70.1627 45.781C69.6021 45.781 69.126 45.5818 68.7342 45.1831C68.3425 44.7849 68.1465 44.2579 68.1465 43.6027C68.1465 42.9611 68.3324 42.4411 68.7037 42.0426C69.0753 41.6439 69.5615 41.4448 70.1627 41.4448C70.8515 41.4448 71.3886 41.715 71.7736 42.2552ZM70.1829 41.8298C69.744 41.8298 69.3657 41.9868 69.0484 42.3009C68.7309 42.6149 68.5721 43.0389 68.5721 43.5722C68.5721 44.0653 68.7174 44.4927 69.0078 44.8539C69.2982 45.2154 69.6933 45.3959 70.193 45.3959C70.6861 45.3959 71.0762 45.2186 71.3633 44.864C71.6503 44.5095 71.7938 44.079 71.7938 43.5722C71.7938 43.0118 71.6283 42.5812 71.2973 42.2807C70.9666 41.98 70.595 41.8298 70.1829 41.8298ZM74.043 44.93V47.9996H73.6378V41.5358H74.043V42.2552C74.4414 41.715 74.9819 41.4448 75.664 41.4448C76.2719 41.4448 76.7581 41.6457 77.1229 42.0475C77.4876 42.4494 77.6699 42.9577 77.6699 43.5722C77.6699 44.2005 77.486 44.7257 77.118 45.1477C76.7498 45.5699 76.2585 45.781 75.6438 45.781C75.333 45.781 75.0527 45.7186 74.8029 45.5935C74.5529 45.4686 74.3807 45.3538 74.2863 45.2491C74.1916 45.1443 74.1107 45.038 74.043 44.93ZM74.4484 44.8741C74.732 45.2221 75.1272 45.3959 75.6335 45.3959C76.1403 45.3959 76.5352 45.2237 76.8189 44.8793C77.1026 44.5348 77.2445 44.0991 77.2445 43.5722C77.2445 43.0252 77.0893 42.5981 76.7785 42.2908C76.4679 41.9834 76.0894 41.8298 75.6438 41.8298C75.2048 41.8298 74.8249 41.9816 74.504 42.2857C74.1833 42.5895 74.0228 43.0118 74.0228 43.5522C74.0228 44.0857 74.1647 44.5263 74.4484 44.8741ZM78.8655 41.5358H79.2707V43.2582H80.2536C80.7263 43.2582 81.0775 43.3867 81.3071 43.6433C81.5031 43.8594 81.6009 44.133 81.6009 44.464C81.6009 44.8353 81.4795 45.1327 81.2362 45.3554C81.0133 45.5648 80.6826 45.6695 80.2435 45.6695H78.8655V41.5358ZM79.2707 45.2845H80.2435C80.5272 45.2845 80.7431 45.2204 80.8918 45.0921C81.0808 44.9367 81.1755 44.7273 81.1755 44.464C81.1755 44.187 81.0775 43.9742 80.8817 43.8258C80.7196 43.704 80.5 43.6433 80.2231 43.6433H79.2707V45.2845ZM82.067 41.5358H82.4723V45.6695H82.067V41.5358ZM91.2967 41.5358H94.0118V45.2845H94.6195V46.784H94.2345V45.6695H90.7495V46.784H90.3645V45.2845C90.7022 45.2641 90.9554 45.0818 91.1245 44.7375C91.2393 44.501 91.2967 44.1294 91.2967 43.6231V41.5358ZM93.6064 45.2845V41.9209H91.7019V43.7446C91.7019 44.4741 91.5263 44.9874 91.1749 45.2845H93.6064ZM98.3682 41.5358V45.6695H97.963V41.9209H96.0583V44.3119C96.0583 44.7645 95.9773 45.0988 95.8152 45.315C95.6327 45.5648 95.3694 45.6899 95.025 45.6899C94.9844 45.6899 94.9169 45.683 94.8222 45.6695V45.2845C94.8899 45.2982 94.9404 45.3049 94.9743 45.3049C95.2039 45.3049 95.383 45.2136 95.5113 45.0313C95.6057 44.8826 95.6531 44.6427 95.6531 44.3119V41.5358H98.3682ZM99.3813 45.6695L100.699 43.8662C100.381 43.8527 100.111 43.7513 99.8879 43.5623C99.6583 43.3596 99.5435 43.086 99.5435 42.7416C99.5435 42.3431 99.6686 42.039 99.9184 41.8298C100.141 41.6338 100.469 41.5358 100.901 41.5358H102.279V45.6695H101.874V43.8863H101.165L99.8677 45.6695H99.3813ZM101.874 43.5013V41.9209H100.901C100.617 41.9209 100.398 41.9816 100.243 42.1034C100.06 42.2586 99.9691 42.468 99.9691 42.7315C99.9691 42.988 100.057 43.184 100.232 43.319C100.394 43.4407 100.617 43.5013 100.901 43.5013H101.874ZM106.25 42.5187H106.271C106.426 42.1608 106.671 41.8922 107.005 41.7134C107.34 41.5342 107.699 41.4448 108.084 41.4448C108.712 41.4448 109.217 41.6439 109.599 42.0426C109.98 42.4411 110.171 42.9611 110.171 43.6027C110.171 44.2646 109.965 44.7932 109.553 45.1883C109.141 45.5834 108.621 45.781 107.993 45.781C107.398 45.781 106.916 45.6087 106.544 45.2641C106.071 44.8185 105.835 44.0823 105.835 43.0557C105.835 41.3941 106.267 40.283 107.132 39.7224C107.213 39.6683 107.301 39.6194 107.395 39.5755C107.49 39.5315 107.572 39.4961 107.643 39.4692C107.714 39.4421 107.81 39.4134 107.932 39.3831C108.054 39.3526 108.141 39.3324 108.195 39.3223C108.249 39.312 108.346 39.2936 108.484 39.2665C108.623 39.2396 108.705 39.2225 108.733 39.216C109.232 39.1079 109.536 38.9288 109.644 38.679H110.151C110.077 38.8478 109.984 38.9913 109.872 39.1095C109.761 39.2277 109.626 39.3223 109.467 39.3932C109.308 39.4642 109.177 39.5147 109.072 39.5452C108.967 39.5755 108.827 39.6111 108.651 39.6515C107.983 39.7867 107.5 39.9724 107.203 40.2087C106.892 40.4588 106.661 40.7963 106.509 41.2219C106.357 41.6475 106.271 42.0798 106.25 42.5187ZM107.993 45.3959C108.574 45.3959 109.011 45.2154 109.305 44.8539C109.599 44.4927 109.746 44.0754 109.746 43.6027C109.746 43.13 109.597 42.7162 109.3 42.3617C109.003 42.0072 108.597 41.8298 108.084 41.8298C107.53 41.8298 107.095 42.0087 106.777 42.3666C106.46 42.7247 106.301 43.1367 106.301 43.6027C106.301 44.0552 106.433 44.4537 106.696 44.7981C107 45.1968 107.432 45.3959 107.993 45.3959ZM111.367 41.5358H111.772V44.849L114.71 41.303V45.6695H114.305V42.3767L111.367 45.9227V41.5358ZM116.503 42.4072L116.169 42.1742C116.453 41.6879 116.888 41.4448 117.476 41.4448C117.874 41.4448 118.178 41.5428 118.388 41.7385C118.611 41.9345 118.722 42.2012 118.722 42.5389C118.722 42.9443 118.563 43.2313 118.246 43.4C118.428 43.4407 118.59 43.5318 118.732 43.6735C118.928 43.8695 119.026 44.133 119.026 44.464C119.026 44.8894 118.864 45.2271 118.54 45.4771C118.27 45.6796 117.918 45.781 117.486 45.781C117.04 45.781 116.679 45.6762 116.402 45.4668C116.179 45.2845 116.014 45.0854 115.906 44.8692L116.27 44.6362C116.372 44.8591 116.517 45.0347 116.706 45.163C116.915 45.3183 117.175 45.3959 117.486 45.3959C117.83 45.3959 118.094 45.3183 118.276 45.163C118.492 44.9874 118.601 44.751 118.601 44.4537C118.601 44.1904 118.506 43.9877 118.317 43.846C118.155 43.7244 117.901 43.6634 117.557 43.6634H117.132V43.2786H117.445C117.709 43.2786 117.915 43.2212 118.063 43.1062C118.232 42.9712 118.317 42.7956 118.317 42.5794C118.317 42.3635 118.246 42.1843 118.104 42.0426C117.949 41.9007 117.736 41.8298 117.466 41.8298C117.034 41.8298 116.713 42.0222 116.503 42.4072ZM120.221 45.6695V41.5358H120.627V43.3596H122.957V41.5358H123.362V45.6695H122.957V43.7446H120.627V45.6695H120.221ZM128.519 43.6533H124.983C124.983 44.1666 125.144 44.5855 125.464 44.9096C125.785 45.2338 126.172 45.3959 126.624 45.3959C126.949 45.3959 127.236 45.3098 127.486 45.1376C127.736 44.9654 127.928 44.7375 128.063 44.4537L128.408 44.6564C128.252 44.9535 128.026 45.2154 127.729 45.4417C127.432 45.6677 127.053 45.781 126.594 45.781C125.966 45.781 125.469 45.5767 125.105 45.1681C124.74 44.7593 124.558 44.2444 124.558 43.6231C124.558 42.9407 124.755 42.4072 125.15 42.0222C125.545 41.6372 126.017 41.4448 126.564 41.4448C127.124 41.4448 127.59 41.6508 127.962 42.0628C128.333 42.4747 128.519 43.005 128.519 43.6533ZM125.013 43.2685H128.093C128.039 42.8497 127.872 42.5052 127.592 42.235C127.312 41.9648 126.969 41.8298 126.564 41.8298C126.152 41.8298 125.804 41.9666 125.52 42.2402C125.237 42.5135 125.068 42.8564 125.013 43.2685ZM133.027 41.9715V42.5086C132.636 42.0561 132.159 41.8298 131.599 41.8298C131.099 41.8298 130.687 42.0002 130.363 42.3413C130.039 42.6826 129.876 43.1098 129.876 43.6231C129.876 44.1767 130.049 44.6109 130.393 44.9248C130.738 45.239 131.133 45.3959 131.579 45.3959C132.126 45.3959 132.626 45.1495 133.078 44.6564V45.2035C132.646 45.5886 132.143 45.781 131.568 45.781C130.947 45.781 130.439 45.5767 130.044 45.1681C129.649 44.7593 129.451 44.2478 129.451 43.6332C129.451 43.005 129.647 42.4832 130.039 42.0679C130.43 41.6524 130.951 41.4448 131.599 41.4448C132.133 41.4448 132.609 41.6204 133.027 41.9715ZM137.556 42.2552V41.5358H137.961V45.6695H137.556V44.93C137.185 45.4973 136.648 45.781 135.945 45.781C135.385 45.781 134.908 45.5818 134.517 45.1831C134.125 44.7849 133.929 44.2579 133.929 43.6027C133.929 42.9611 134.115 42.4411 134.486 42.0426C134.858 41.6439 135.344 41.4448 135.945 41.4448C136.634 41.4448 137.171 41.715 137.556 42.2552ZM135.965 41.8298C135.526 41.8298 135.148 41.9868 134.831 42.3009C134.513 42.6149 134.355 43.0389 134.355 43.5722C134.355 44.0653 134.5 44.4927 134.79 44.8539C135.081 45.2154 135.476 45.3959 135.975 45.3959C136.468 45.3959 136.859 45.2186 137.146 44.864C137.433 44.5095 137.576 44.079 137.576 43.5722C137.576 43.0118 137.411 42.5812 137.08 42.2807C136.749 41.98 136.377 41.8298 135.965 41.8298Z" fill="#323231"/>
  </g>
</svg>
