<svg width="168" height="48" viewBox="0 0 168 48" fill="none" xmlns="http://www.w3.org/2000/svg">
<g clip-path="url(#clip0_37386_1498)">
<path d="M80.4807 11.8541H62.317C57.1219 11.8541 52.8964 16.0806 52.8964 21.2756C52.8964 26.4697 57.1219 30.6969 62.317 30.6969H80.4807C85.6759 30.6969 89.9019 26.4697 89.9019 21.2756C89.9019 16.0806 85.6759 11.8541 80.4807 11.8541ZM62.317 17.5608H80.4807C82.5288 17.5608 84.1954 19.2277 84.1954 21.2756C84.1954 23.3234 82.5288 24.9892 80.4807 24.9892H62.317C60.269 24.9892 58.6033 23.3234 58.6033 21.2756C58.6033 19.2277 60.269 17.5608 62.317 17.5608ZM151.865 37.5481H145.59V12.3763H151.865V14.3528C153.205 12.6662 155.032 11.8211 157.343 11.8211C158.614 11.8211 159.798 12.0699 160.896 12.567C161.993 13.064 162.947 13.7402 163.756 14.5947C164.566 15.4495 165.195 16.4556 165.645 17.6113C166.096 18.7673 166.322 20.0031 166.322 21.3207C166.322 22.6376 166.096 23.8639 165.645 24.9961C165.195 26.1286 164.571 27.1224 163.773 27.9772C162.977 28.8317 162.033 29.5027 160.948 29.9876C159.861 30.4723 158.683 30.716 157.412 30.716C155.193 30.716 153.343 29.9536 151.865 28.428V37.5481ZM159.769 21.3207C159.769 20.7663 159.671 20.2407 159.475 19.7428C159.278 19.2468 158.994 18.8133 158.625 18.4435C158.255 18.0744 157.822 17.7793 157.326 17.5601C156.828 17.3397 156.291 17.2292 155.713 17.2292C155.159 17.2292 154.638 17.3338 154.154 17.5417C153.668 17.7497 153.245 18.0387 152.888 18.4087C152.529 18.7785 152.241 19.212 152.021 19.7088C151.801 20.2059 151.691 20.7307 151.691 21.2869C151.691 21.8402 151.796 22.3618 152.004 22.8465C152.212 23.3312 152.501 23.7534 152.871 24.111C153.24 24.4703 153.673 24.7595 154.17 24.9787C154.667 25.1981 155.193 25.3077 155.748 25.3077C156.302 25.3077 156.823 25.2041 157.309 24.9961C157.793 24.7882 158.215 24.4984 158.573 24.1294C158.932 23.7603 159.22 23.3312 159.44 22.8465C159.659 22.3618 159.769 21.8524 159.769 21.3207ZM130.191 22.3261C130.191 25.0301 131.461 26.3826 134.004 26.3826C135.367 26.3826 136.397 25.8273 137.09 24.7186H143.157C141.931 28.7864 138.869 30.8206 133.97 30.8206C132.467 30.8206 131.091 30.5941 129.843 30.1442C128.595 29.6933 127.526 29.0519 126.637 28.2199C125.747 27.3879 125.059 26.3948 124.574 25.2381C124.089 24.0833 123.846 22.789 123.846 21.3557C123.846 19.8768 124.077 18.5417 124.54 17.3512C125.001 16.1605 125.661 15.1501 126.515 14.3182C127.371 13.4852 128.405 12.8446 129.618 12.3946C130.832 11.9428 132.201 11.7175 133.726 11.7175C135.229 11.7175 136.581 11.9428 137.783 12.3946C138.984 12.8446 140.002 13.4975 140.834 14.3528C141.666 15.2077 142.3 16.2537 142.74 17.4896C143.18 18.7264 143.4 20.1197 143.4 21.668V22.3261H130.191ZM137.54 18.6862C137.332 17.8082 136.904 17.1031 136.258 16.5714C135.61 16.0397 134.823 15.7734 133.9 15.7734C132.93 15.7734 132.138 16.0282 131.525 16.5364C130.913 17.0458 130.525 17.7612 130.364 18.6862H137.54ZM122.857 17.6113H118.698V30.1618H112.423V17.6113H108.262V12.3763H122.857V17.6113ZM106.021 18.1319C104.934 17.3911 103.836 17.0222 102.726 17.0222C102.126 17.0222 101.565 17.1258 101.045 17.3338C100.525 17.5417 100.068 17.8368 99.6751 18.2172C99.2825 18.5993 98.9762 19.0501 98.7569 19.5706C98.5366 20.0901 98.4278 20.6741 98.4278 21.3207C98.4278 21.9448 98.5366 22.5166 98.7569 23.0371C98.9762 23.5565 99.2774 24.0074 99.6594 24.3895C100.04 24.7708 100.496 25.0649 101.028 25.2731C101.56 25.481 102.126 25.5854 102.726 25.5854C103.905 25.5854 105.003 25.1815 106.021 24.3713V29.7109C104.471 30.381 103.004 30.716 101.618 30.716C100.323 30.716 99.092 30.4966 97.9257 30.0572C96.7577 29.6184 95.7291 28.9884 94.8396 28.1687C93.95 27.3478 93.2389 26.3652 92.7071 25.2207C92.1754 24.0779 91.9099 22.7995 91.9099 21.3905C91.9099 19.9805 92.1639 18.6916 92.6733 17.5243C93.1815 16.3581 93.8742 15.352 94.7524 14.5087C95.6306 13.6653 96.6767 13.0066 97.89 12.5323C99.1042 12.0586 100.404 11.8211 101.791 11.8211C103.316 11.8211 104.725 12.1458 106.021 12.7924V18.1319ZM36.8456 37.5481H30.5707V12.3763H36.8456V14.3528C38.1851 12.6662 40.0119 11.8211 42.3236 11.8211C43.5942 11.8211 44.7788 12.0699 45.8772 12.567C46.9739 13.064 47.9277 13.7402 48.7371 14.5947C49.5456 15.4495 50.1757 16.4556 50.6266 17.6113C51.0775 18.7673 51.3028 20.0031 51.3028 21.3207C51.3028 22.6376 51.0775 23.8639 50.6266 24.9961C50.1757 26.1286 49.5517 27.1224 48.7545 27.9772C47.9573 28.8317 47.0148 29.5027 45.9294 29.9876C44.8425 30.4723 43.663 30.716 42.3932 30.716C40.174 30.716 38.3244 29.9536 36.8456 28.428V37.5481ZM44.75 21.3207C44.75 20.7663 44.6517 20.2407 44.456 19.7428C44.2584 19.2468 43.9755 18.8133 43.6055 18.4435C43.2366 18.0744 42.8022 17.7793 42.3062 17.5601C41.8093 17.3397 41.2714 17.2292 40.6934 17.2292C40.1399 17.2292 39.6195 17.3338 39.1338 17.5417C38.6482 17.7497 38.2262 18.0387 37.8693 18.4087C37.5098 18.7785 37.2208 19.212 37.0024 19.7088C36.7822 20.2059 36.6715 20.7307 36.6715 21.2869C36.6715 21.8402 36.777 22.3618 36.985 22.8465C37.1922 23.3312 37.4819 23.7534 37.851 24.111C38.2201 24.4703 38.6543 24.7595 39.1512 24.9787C39.6482 25.1981 40.174 25.3077 40.7284 25.3077C41.2837 25.3077 41.8031 25.2041 42.2888 24.9961C42.7745 24.7882 43.1957 24.4984 43.5543 24.1294C43.9121 23.7603 44.2008 23.3312 44.4203 22.8465C44.6404 22.3618 44.75 21.8524 44.75 21.3207ZM16.4077 30.1618V12.3763H28.8561V17.6113H22.6481V30.1618H16.4077Z" fill="#323231"/>
<path d="M6.32472 21.0449C5.79032 20.6979 5.34346 20.3443 4.98338 19.9836C4.62291 19.6237 4.34291 19.2237 4.1426 18.7831C3.94211 18.3426 3.80239 17.8422 3.72212 17.2818C3.64223 16.7209 3.6019 16.0672 3.6019 15.3201V8.59465C3.6019 8.03368 3.56215 7.58033 3.48206 7.23343C3.40198 6.88653 3.26169 6.61952 3.06177 6.43241C2.86147 6.24587 2.58147 6.1266 2.221 6.07232C1.86034 6.01881 1.40029 5.99224 0.839904 5.99224H-0.000488281V0.82795H3.44174C5.49675 0.82795 7.00494 1.31552 7.96555 2.28932C8.92636 3.26312 9.40685 4.95135 9.40685 7.35327V14.9197C9.40685 16.1746 9.59378 17.0886 9.96763 17.6618C10.3409 18.2363 11.5397 18.6167 12.4475 18.803V23.7272C10.7923 24.1013 9.40685 25.2486 9.40685 27.17V34.7368C9.40685 37.0846 8.94681 38.7601 8.02595 39.7606C7.1049 40.7616 5.55007 41.2614 3.36223 41.2614H-0.000488281V36.0573H0.799575C1.38634 36.0573 1.86665 36.0306 2.24126 35.9776C2.61396 35.9237 2.9018 35.8035 3.10153 35.6172C3.30202 35.4304 3.43543 35.163 3.50251 34.8165C3.56845 34.4696 3.6019 34.0159 3.6019 33.4553V26.7295C3.6019 25.9289 3.64854 25.2486 3.74219 24.688C3.83527 24.1271 3.98244 23.6342 4.18274 23.2066C4.38304 22.78 4.65636 22.3997 5.00325 22.0658C5.34977 21.7324 5.79032 21.3922 6.32472 21.0449Z" fill="#BE2BE9"/>
<path d="M83.3724 44.8028V43.3106C83.3724 43.2541 83.3267 43.209 83.2703 43.209H81.7635C81.7075 43.209 81.6616 43.1627 81.6616 43.1061V42.7176C81.6616 42.6616 81.7075 42.6153 81.7635 42.6153H83.2703C83.3267 42.6153 83.3724 42.5696 83.3724 42.5133V41.0213C83.3724 40.9653 83.4183 40.9191 83.4743 40.9191H83.8791C83.9353 40.9191 83.981 40.9653 83.981 41.0213V42.5133C83.981 42.5696 84.0264 42.6153 84.0826 42.6153H85.5895C85.6461 42.6153 85.6916 42.6616 85.6916 42.7176V43.1061C85.6916 43.1627 85.6461 43.209 85.5895 43.209H84.0826C84.0264 43.209 83.981 43.2541 83.981 43.3106V44.8028C83.981 44.859 83.9353 44.9052 83.8791 44.9052H83.4743C83.4183 44.9052 83.3724 44.859 83.3724 44.8028Z" fill="#FFE53D"/>
<path d="M54.352 44.9222V41.3028H52.9629V40.9311H56.1324V41.3028H54.7433V44.9222H54.352ZM57.2621 41.4448C57.6633 41.0437 58.1604 40.8432 58.7539 40.8432C59.3473 40.8432 59.8447 41.0437 60.2456 41.4448C60.6468 41.8458 60.8473 42.3429 60.8473 42.9366C60.8473 43.53 60.6468 44.0272 60.2456 44.4282C59.8447 44.8293 59.3473 45.0298 58.7539 45.0298C58.1604 45.0298 57.6633 44.8293 57.2621 44.4282C56.8611 44.0272 56.6605 43.53 56.6605 42.9366C56.6605 42.3429 56.8611 41.8458 57.2621 41.4448ZM57.5557 44.1592C57.8783 44.4918 58.2778 44.6581 58.7539 44.6581C59.23 44.6581 59.6294 44.4918 59.9521 44.1592C60.2751 43.8267 60.4364 43.419 60.4364 42.9366C60.4364 42.454 60.2751 42.0463 59.9521 41.7137C59.6294 41.3812 59.23 41.2149 58.7539 41.2149C58.2778 41.2149 57.8783 41.3812 57.5557 41.7137C57.2327 42.0463 57.0714 42.454 57.0714 42.9366C57.0714 43.419 57.2327 43.8267 57.5557 44.1592ZM62.0015 40.9311H63.3026C63.6743 40.9311 63.9579 41.0094 64.1535 41.166C64.3884 41.355 64.5057 41.6094 64.5057 41.929C64.5057 42.2942 64.3589 42.5712 64.0655 42.7604C64.2481 42.7866 64.4111 42.8615 64.5546 42.9853C64.7829 43.1875 64.897 43.4549 64.897 43.7875C64.897 44.1592 64.7632 44.4461 64.496 44.6483C64.2611 44.8309 63.935 44.9222 63.5176 44.9222H62.0015V40.9311ZM62.3928 42.6725H63.3026C63.5438 42.6725 63.733 42.6168 63.8698 42.5062C64.0329 42.3756 64.1145 42.1996 64.1145 41.9779C64.1145 41.7627 64.0329 41.5899 63.8698 41.4594C63.7395 41.355 63.5505 41.3028 63.3026 41.3028H62.3928V42.6725ZM62.3928 44.5505H63.5176C63.8176 44.5505 64.0459 44.4918 64.2026 44.3744C64.3914 44.2309 64.4862 44.0321 64.4862 43.7777C64.4862 43.5429 64.3981 43.3571 64.2221 43.2202C64.0655 43.1027 63.8308 43.0442 63.5176 43.0442H62.3928V44.5505ZM69.2988 41.6256V40.9311H69.6901V44.9222H69.2988V44.2082C68.9401 44.7559 68.4217 45.0298 67.7434 45.0298C67.2022 45.0298 66.7425 44.8376 66.3642 44.4526C65.986 44.0681 65.7968 43.5593 65.7968 42.9267C65.7968 42.3072 65.9763 41.8051 66.3348 41.4204C66.6936 41.0354 67.163 40.8432 67.7434 40.8432C68.4086 40.8432 68.9271 41.104 69.2988 41.6256ZM67.7629 41.2149C67.3392 41.2149 66.9739 41.3665 66.6676 41.6698C66.361 41.9729 66.2077 42.3823 66.2077 42.8972C66.2077 43.3733 66.348 43.786 66.6284 44.1348C66.9088 44.4838 67.2903 44.6581 67.7727 44.6581C68.2488 44.6581 68.6255 44.4868 68.9026 44.1445C69.1798 43.8022 69.3183 43.3865 69.3183 42.8972C69.3183 42.3561 69.1585 41.9404 68.839 41.6503C68.5196 41.36 68.1609 41.2149 67.7629 41.2149ZM71.4899 44.2082V47.172H71.0987V40.9311H71.4899V41.6256C71.8747 41.104 72.3965 40.8432 73.0551 40.8432C73.642 40.8432 74.1114 41.0372 74.4637 41.4251C74.8158 41.8131 74.9918 42.304 74.9918 42.8972C74.9918 43.5039 74.8142 44.0109 74.4589 44.4184C74.1034 44.8261 73.629 45.0298 73.0356 45.0298C72.7355 45.0298 72.4649 44.9696 72.2237 44.8488C71.9823 44.7282 71.816 44.6174 71.7248 44.5163C71.6335 44.4152 71.5553 44.3125 71.4899 44.2082ZM71.8814 44.1543C72.1552 44.4903 72.5367 44.6581 73.0256 44.6581C73.5149 44.6581 73.8962 44.4918 74.1701 44.1592C74.444 43.8267 74.581 43.406 74.581 42.8972C74.581 42.3691 74.4312 41.9567 74.1311 41.66C73.8312 41.3632 73.4658 41.2149 73.0356 41.2149C72.6117 41.2149 72.2449 41.3615 71.9351 41.6551C71.6254 41.9485 71.4704 42.3561 71.4704 42.8779C71.4704 43.393 71.6075 43.8185 71.8814 44.1543ZM76.1462 40.9311H76.5374V42.5941H77.4864C77.9428 42.5941 78.2819 42.7181 78.5036 42.9658C78.6928 43.1745 78.7872 43.4387 78.7872 43.7583C78.7872 44.1168 78.67 44.4039 78.4352 44.6189C78.2199 44.8211 77.9006 44.9222 77.4766 44.9222H76.1462V40.9311ZM76.5374 44.5505H77.4766C77.7505 44.5505 77.9591 44.4886 78.1026 44.3647C78.2851 44.2147 78.3765 44.0125 78.3765 43.7583C78.3765 43.4909 78.2819 43.2854 78.0928 43.1421C77.9363 43.0245 77.7243 42.9658 77.457 42.9658H76.5374V44.5505ZM79.2373 40.9311H79.6286V44.9222H79.2373V40.9311ZM88.1487 40.9311H90.7702V44.5505H91.357V45.9983H90.9852V44.9222H87.6204V45.9983H87.2487V44.5505C87.5747 44.5308 87.8192 44.3548 87.9824 44.0224C88.0933 43.794 88.1487 43.4352 88.1487 42.9463V40.9311ZM90.3788 44.5505V41.3028H88.5399V43.0637C88.5399 43.768 88.3704 44.2636 88.0311 44.5505H90.3788ZM94.9764 40.9311V44.9222H94.5851V41.3028H92.7461V43.6115C92.7461 44.0484 92.6679 44.3712 92.5114 44.5799C92.3352 44.8211 92.081 44.9419 91.7484 44.9419C91.7092 44.9419 91.644 44.9352 91.5527 44.9222V44.5505C91.618 44.5637 91.6668 44.5702 91.6995 44.5702C91.9212 44.5702 92.0941 44.4821 92.218 44.306C92.3092 44.1625 92.3549 43.9308 92.3549 43.6115V40.9311H94.9764ZM95.9546 44.9222L97.2263 43.181C96.9198 43.168 96.6589 43.0702 96.4437 42.8877C96.2219 42.6919 96.1111 42.4278 96.1111 42.0952C96.1111 41.7105 96.2319 41.4169 96.4731 41.2149C96.6883 41.0257 97.0044 40.9311 97.4219 40.9311H98.7521V44.9222H98.3611V43.2005H97.6762L96.4242 44.9222H95.9546ZM98.3611 42.8288V41.3028H97.4219C97.148 41.3028 96.936 41.3615 96.7862 41.479C96.6099 41.6289 96.522 41.8311 96.522 42.0855C96.522 42.3332 96.6067 42.5224 96.7762 42.6528C96.9328 42.7703 97.148 42.8288 97.4219 42.8288H98.3611ZM102.587 41.88H102.606C102.756 41.5345 102.993 41.2751 103.315 41.1025C103.638 40.9296 103.986 40.8432 104.357 40.8432C104.964 40.8432 105.451 41.0354 105.82 41.4204C106.188 41.8051 106.372 42.3072 106.372 42.9267C106.372 43.5658 106.173 44.0761 105.776 44.4576C105.378 44.8391 104.876 45.0298 104.269 45.0298C103.695 45.0298 103.229 44.8635 102.87 44.5308C102.414 44.1006 102.186 43.3898 102.186 42.3986C102.186 40.7942 102.603 39.7214 103.438 39.1802C103.516 39.128 103.601 39.0808 103.692 39.0383C103.783 38.9959 103.863 38.9617 103.932 38.9357C104 38.9095 104.093 38.8818 104.211 38.8526C104.328 38.8231 104.413 38.8036 104.465 38.7939C104.517 38.7839 104.61 38.7662 104.744 38.74C104.877 38.714 104.957 38.6976 104.983 38.6912C105.466 38.5869 105.759 38.4139 105.864 38.1727H106.353C106.281 38.3357 106.191 38.4743 106.084 38.5884C105.976 38.7025 105.846 38.7939 105.692 38.8623C105.539 38.9309 105.412 38.9797 105.311 39.0091C105.21 39.0383 105.075 39.0727 104.905 39.1117C104.259 39.2423 103.793 39.4215 103.506 39.6498C103.206 39.8911 102.983 40.217 102.836 40.6279C102.689 41.0389 102.606 41.4563 102.587 41.88ZM104.269 44.6581C104.83 44.6581 105.252 44.4838 105.536 44.1348C105.82 43.786 105.961 43.3831 105.961 42.9267C105.961 42.4702 105.818 42.0708 105.531 41.7285C105.244 41.3862 104.853 41.2149 104.357 41.2149C103.823 41.2149 103.402 41.3877 103.095 41.7332C102.789 42.079 102.636 42.4767 102.636 42.9267C102.636 43.3636 102.763 43.7483 103.017 44.0809C103.311 44.4658 103.728 44.6581 104.269 44.6581ZM107.527 40.9311H107.918V44.13L110.755 40.7063V44.9222H110.363V41.743L107.527 45.1667V40.9311ZM112.486 41.7724L112.163 41.5475C112.437 41.0779 112.858 40.8432 113.425 40.8432C113.81 40.8432 114.103 40.9378 114.306 41.1268C114.521 41.316 114.628 41.5735 114.628 41.8995C114.628 42.291 114.475 42.5681 114.169 42.7309C114.345 42.7703 114.501 42.8582 114.638 42.9951C114.827 43.1843 114.922 43.4387 114.922 43.7583C114.922 44.169 114.765 44.495 114.452 44.7364C114.191 44.932 113.852 45.0298 113.435 45.0298C113.005 45.0298 112.656 44.9287 112.388 44.7265C112.173 44.5505 112.013 44.3582 111.909 44.1495L112.261 43.9245C112.359 44.1397 112.499 44.3093 112.682 44.4331C112.884 44.5832 113.135 44.6581 113.435 44.6581C113.768 44.6581 114.022 44.5832 114.198 44.4331C114.407 44.2636 114.511 44.0354 114.511 43.7483C114.511 43.4941 114.42 43.2984 114.237 43.1615C114.081 43.0442 113.836 42.9853 113.503 42.9853H113.093V42.6138H113.396C113.65 42.6138 113.849 42.5583 113.993 42.4473C114.156 42.317 114.237 42.1474 114.237 41.9387C114.237 41.7302 114.169 41.5572 114.032 41.4204C113.882 41.2833 113.676 41.2149 113.415 41.2149C112.998 41.2149 112.688 41.4007 112.486 41.7724ZM116.076 44.9222V40.9311H116.467V42.6919H118.717V40.9311H119.108V44.9222H118.717V43.0637H116.467V44.9222H116.076ZM124.088 42.9756H120.674C120.674 43.4712 120.828 43.8756 121.138 44.1885C121.448 44.5015 121.821 44.6581 122.258 44.6581C122.571 44.6581 122.848 44.5749 123.09 44.4087C123.331 44.2424 123.517 44.0224 123.647 43.7483L123.98 43.944C123.83 44.2309 123.611 44.4838 123.324 44.7022C123.038 44.9205 122.672 45.0298 122.229 45.0298C121.622 45.0298 121.143 44.8326 120.791 44.4381C120.439 44.0434 120.263 43.5463 120.263 42.9463C120.263 42.2875 120.453 41.7724 120.835 41.4007C121.216 41.0289 121.671 40.8432 122.2 40.8432C122.741 40.8432 123.191 41.0421 123.549 41.4399C123.908 41.8376 124.088 42.3496 124.088 42.9756ZM120.703 42.604H123.677C123.624 42.1996 123.463 41.867 123.192 41.6061C122.922 41.3453 122.591 41.2149 122.2 41.2149C121.802 41.2149 121.466 41.347 121.192 41.6111C120.918 41.8751 120.755 42.2061 120.703 42.604ZM128.44 41.3518V41.8703C128.062 41.4334 127.602 41.2149 127.061 41.2149C126.579 41.2149 126.181 41.3795 125.868 41.7088C125.555 42.0383 125.398 42.4507 125.398 42.9463C125.398 43.4809 125.565 43.9001 125.897 44.2032C126.23 44.5065 126.611 44.6581 127.042 44.6581C127.57 44.6581 128.052 44.4201 128.489 43.944V44.4723C128.072 44.8441 127.586 45.0298 127.032 45.0298C126.432 45.0298 125.941 44.8326 125.56 44.4381C125.178 44.0434 124.987 43.5495 124.987 42.9561C124.987 42.3496 125.177 41.8458 125.555 41.4448C125.933 41.0437 126.435 40.8432 127.061 40.8432C127.576 40.8432 128.036 41.0127 128.44 41.3518ZM132.813 41.6256V40.9311H133.204V44.9222H132.813V44.2082C132.454 44.7559 131.936 45.0298 131.258 45.0298C130.716 45.0298 130.257 44.8376 129.878 44.4526C129.5 44.0681 129.311 43.5593 129.311 42.9267C129.311 42.3072 129.49 41.8051 129.849 41.4204C130.208 41.0354 130.677 40.8432 131.258 40.8432C131.923 40.8432 132.441 41.104 132.813 41.6256ZM131.277 41.2149C130.853 41.2149 130.488 41.3665 130.181 41.6698C129.875 41.9729 129.722 42.3823 129.722 42.8972C129.722 43.3733 129.862 43.786 130.142 44.1348C130.423 44.4838 130.804 44.6581 131.287 44.6581C131.763 44.6581 132.14 44.4868 132.417 44.1445C132.694 43.8022 132.832 43.3865 132.832 42.8972C132.832 42.3561 132.673 41.9404 132.353 41.6503C132.034 41.36 131.675 41.2149 131.277 41.2149Z" fill="#323231"/>
</g>
<defs>
<clipPath id="clip0_37386_1498">
<rect width="168" height="46.3448" fill="white" transform="translate(0 0.827583)"/>
</clipPath>
</defs>
</svg>
