<svg viewBox="0 0 16 16" xmlns="http://www.w3.org/2000/svg">
  <path fill-rule="evenodd" clip-rule="evenodd" d="M12.2704 2.7696C12.0158 2.7696 11.7716 2.87074 11.5916 3.05078C11.4115 3.23081 11.3104 3.47499 11.3104 3.7296C11.3104 3.98421 11.4115 4.22839 11.5916 4.40842C11.7716 4.58846 12.0158 4.6896 12.2704 4.6896C12.525 4.6896 12.7692 4.58846 12.9492 4.40842C13.1293 4.22839 13.2304 3.98421 13.2304 3.7296C13.2304 3.47499 13.1293 3.23081 12.9492 3.05078C12.7692 2.87074 12.525 2.7696 12.2704 2.7696ZM8 10.6664C7.64979 10.6664 7.30301 10.5974 6.97946 10.4634C6.65591 10.3294 6.36192 10.1329 6.11429 9.88531C5.86665 9.63768 5.67022 9.34369 5.5362 9.02014C5.40218 8.69659 5.3332 8.34981 5.3332 7.9996C5.3332 7.64939 5.40218 7.30261 5.5362 6.97906C5.67022 6.65551 5.86665 6.36152 6.11429 6.11389C6.36192 5.86625 6.65591 5.66982 6.97946 5.5358C7.30301 5.40178 7.64979 5.3328 8 5.3328C8.70728 5.3328 9.38559 5.61377 9.88571 6.11389C10.3858 6.61401 10.6668 7.29232 10.6668 7.9996C10.6668 8.70688 10.3858 9.38519 9.88571 9.88531C9.38559 10.3854 8.70728 10.6664 8 10.6664ZM8 3.892C6.91049 3.892 5.8656 4.32481 5.09521 5.09521C4.32481 5.8656 3.892 6.91049 3.892 8C3.892 9.08951 4.32481 10.1344 5.09521 10.9048C5.8656 11.6752 6.91049 12.108 8 12.108C9.08951 12.108 10.1344 11.6752 10.9048 10.9048C11.6752 10.1344 12.108 9.08951 12.108 8C12.108 6.91049 11.6752 5.8656 10.9048 5.09521C10.1344 4.32481 9.08951 3.892 8 3.892ZM14.512 11.2328C14.4768 12.012 14.3464 12.436 14.2368 12.7184C14.1085 13.0659 13.9041 13.3803 13.6384 13.6384C13.3584 13.9184 13.092 14.092 12.7184 14.236C12.4368 14.3464 12.012 14.476 11.2328 14.5112C10.3888 14.5504 10.1368 14.5592 8 14.5592C5.864 14.5592 5.6112 14.5504 4.7672 14.5112C3.988 14.4768 3.5632 14.3464 3.2824 14.236C2.93492 14.1081 2.62054 13.9039 2.3624 13.6384C2.0964 13.3804 1.89164 13.066 1.7632 12.7184C1.6536 12.436 1.524 12.012 1.4888 11.2328C1.4496 10.3888 1.4416 10.136 1.4416 8C1.4416 5.864 1.4496 5.6112 1.4888 4.7672C1.524 3.9872 1.6536 3.564 1.7632 3.2816C1.89146 2.93409 2.09593 2.61973 2.3616 2.3616C2.6199 2.09614 2.93421 1.8917 3.2816 1.7632C3.5632 1.6536 3.988 1.5232 4.7672 1.488C5.6112 1.4496 5.864 1.4416 8 1.4416C10.136 1.4416 10.3888 1.4496 11.2328 1.488C12.012 1.5232 12.4368 1.6536 12.7184 1.7632C13.0659 1.89146 13.3803 2.09593 13.6384 2.3616C13.9184 2.6416 14.092 2.908 14.2368 3.2816C14.3464 3.564 14.4768 3.9872 14.512 4.7672C14.5504 5.6112 14.5592 5.8632 14.5592 8C14.5592 10.136 14.5504 10.3888 14.512 11.2328ZM15.952 4.7016C15.9136 3.8504 15.7784 3.2688 15.58 2.76C15.3794 2.22594 15.0646 1.74214 14.6576 1.3424C14.2579 0.935682 13.7745 0.620917 13.2408 0.42C12.7304 0.2224 12.1504 0.0872 11.2976 0.048C10.4456 0.0088 10.1728 0 8 0C5.8272 0 5.5552 0.0088 4.7016 0.048C3.8504 0.0872 3.2688 0.2224 2.76 0.42C2.22618 0.620594 1.74264 0.935402 1.3432 1.3424C0.935956 1.74211 0.620887 2.2259 0.42 2.76C0.2224 3.2688 0.0872 3.8496 0.048 4.7016C0.0096 5.5552 0 5.8272 0 8C0 10.1728 0.0096 10.4448 0.048 11.2984C0.0872 12.1504 0.2224 12.7312 0.42 13.2408C0.621174 13.7745 0.936213 14.258 1.3432 14.6576C1.74272 15.0645 2.22624 15.3793 2.76 15.58C3.2688 15.7776 3.8496 15.9128 4.7016 15.952C5.5552 15.9912 5.8272 16 8 16C10.1728 16 10.4456 15.9912 11.2984 15.952C12.1504 15.9128 12.7312 15.7776 13.2408 15.58C13.7744 15.379 14.2579 15.0642 14.6576 14.6576C15.0644 14.258 15.3791 13.7745 15.58 13.2408C15.7784 12.7312 15.9136 12.1504 15.952 11.2984C15.9912 10.4448 16 10.1728 16 8C16 5.8272 15.9912 5.5544 15.952 4.7016Z"/>
</svg>
