<svg viewBox="0 0 20 20" xmlns="http://www.w3.org/2000/svg">
  <path fill-rule="evenodd" clip-rule="evenodd" d="M10 15.8482L16.5039 12.1318C16.9834 11.8577 17.5943 12.0243 17.8683 12.5039C18.1227 12.9491 17.9973 13.5076 17.5941 13.8045L17.4962 13.8682L10.4962 17.8682C10.2272 18.022 9.9046 18.0412 9.6222 17.9259L9.50391 17.8682L2.50391 13.8682C2.02439 13.5942 1.8578 12.9834 2.13181 12.5039C2.38624 12.0586 2.93112 11.8831 3.39159 12.0797L3.49619 12.1318L10 15.8482L16.5039 12.1318L10 15.8482ZM2.50391 6.13176L9.50391 2.13176C9.77291 1.97804 10.0955 1.95883 10.3779 2.07411L10.4962 2.13176L17.4962 6.13176C18.1285 6.49307 18.1657 7.37241 17.6078 7.79466L17.4962 7.86824L10.4962 11.8682C10.2272 12.022 9.9046 12.0412 9.6222 11.9259L9.50391 11.8682L2.50391 7.86824C1.87161 7.50693 1.83442 6.62759 2.39233 6.20534L2.50391 6.13176L9.50391 2.13176L2.50391 6.13176ZM10 4.15175L5.01561 7L10 9.84825L14.9845 7L10 4.15175Z"/>
</svg>
