<svg viewBox="0 0 52 52" fill="none" xmlns="http://www.w3.org/2000/svg">
    <path d="M20.3079 25.0909C20.1566 25.6124 20.0758 26.1646 20.0758 26.7346C20.0758 30.0074 22.7287 32.6587 26 32.6587C26.5699 32.6587 27.1222 32.578 27.6452 32.4281L20.3079 25.0909ZM26 20.8104C25.8678 20.8104 25.7356 20.8148 25.6064 20.8236L31.9125 27.1297C31.9213 26.999 31.9257 26.8668 31.9257 26.7346C31.9257 23.4618 29.2728 20.8104 26 20.8104ZM20.3079 25.0909C20.1566 25.6124 20.0758 26.1646 20.0758 26.7346C20.0758 30.0074 22.7287 32.6587 26 32.6587C26.5699 32.6587 27.1222 32.578 27.6452 32.4281L20.3079 25.0909ZM26 20.8104C25.8678 20.8104 25.7356 20.8148 25.6064 20.8236L31.9125 27.1297C31.9213 26.999 31.9257 26.8668 31.9257 26.7346C31.9257 23.4618 29.2728 20.8104 26 20.8104ZM20.3079 25.0909C20.1566 25.6124 20.0758 26.1646 20.0758 26.7346C20.0758 30.0074 22.7287 32.6587 26 32.6587C26.5699 32.6587 27.1222 32.578 27.6452 32.4281L20.3079 25.0909ZM29.0598 33.8427C28.1211 34.2481 27.087 34.4714 26 34.4714C21.7283 34.4714 18.2646 31.0076 18.2646 26.7345C18.2646 25.649 18.4878 24.6149 18.8933 23.6762L14.2148 18.9977H12.0452V36.2341H31.4512L29.0598 33.8427ZM34.1496 18.9977L32.5132 15.8601V15.7661H20.5473L24.0331 19.2504C24.6618 19.0859 25.3199 18.9977 26 18.9977C30.2731 18.9977 33.7368 22.4615 33.7368 26.7346C33.7368 27.4147 33.6487 28.0728 33.4841 28.7015L39.9548 35.1721V18.9977H34.1496ZM36.9684 23.5514C36.1297 23.5514 35.4511 22.8728 35.4511 22.034C35.4511 21.1952 36.1297 20.5165 36.9684 20.5165C37.8072 20.5165 38.4859 21.1952 38.4859 22.034C38.4859 22.8728 37.8072 23.5514 36.9684 23.5514ZM26 20.8104C25.8678 20.8104 25.7356 20.8148 25.6064 20.8236L31.9125 27.1297C31.9213 26.999 31.9257 26.8668 31.9257 26.7346C31.9257 23.4618 29.2728 20.8104 26 20.8104ZM20.3079 25.0909C20.1566 25.6124 20.0758 26.1646 20.0758 26.7346C20.0758 30.0074 22.7287 32.6587 26 32.6587C26.5699 32.6587 27.1222 32.578 27.6452 32.4281L20.3079 25.0909ZM20.3079 25.0909C20.1566 25.6124 20.0758 26.1646 20.0758 26.7346C20.0758 30.0074 22.7287 32.6587 26 32.6587C26.5699 32.6587 27.1222 32.578 27.6452 32.4281L20.3079 25.0909ZM26 20.8104C25.8678 20.8104 25.7356 20.8148 25.6064 20.8236L31.9125 27.1297C31.9213 26.999 31.9257 26.8668 31.9257 26.7346C31.9257 23.4618 29.2728 20.8104 26 20.8104ZM20.3079 25.0909C20.1566 25.6124 20.0758 26.1646 20.0758 26.7346C20.0758 30.0074 22.7287 32.6587 26 32.6587C26.5699 32.6587 27.1222 32.578 27.6452 32.4281L20.3079 25.0909ZM26 20.8104C25.8678 20.8104 25.7356 20.8148 25.6064 20.8236L31.9125 27.1297C31.9213 26.999 31.9257 26.8668 31.9257 26.7346C31.9257 23.4618 29.2728 20.8104 26 20.8104ZM20.3079 25.0909C20.1566 25.6124 20.0758 26.1646 20.0758 26.7346C20.0758 30.0074 22.7287 32.6587 26 32.6587C26.5699 32.6587 27.1222 32.578 27.6452 32.4281L20.3079 25.0909ZM26 20.8104C25.8678 20.8104 25.7356 20.8148 25.6064 20.8236L31.9125 27.1297C31.9213 26.999 31.9257 26.8668 31.9257 26.7346C31.9257 23.4618 29.2728 20.8104 26 20.8104Z" fill="#BE2BE9"/>
    <path d="M26 0C19.2958 0 13.1851 2.53683 8.57559 6.70272C7.919 7.29616 7.29325 7.92043 6.70272 8.57708C2.53534 13.1881 0 19.2973 0 26C0 40.3587 11.6397 52 26 52C32.7027 52 38.8149 49.4632 43.4244 45.2988C44.0796 44.7053 44.7053 44.0796 45.2973 43.4244C49.4632 38.8134 52 32.7042 52 26C51.9999 11.6412 40.3587 0 26 0ZM26 49.3559C13.0999 49.3559 2.64406 38.8987 2.64406 26C2.64406 20.0288 4.88563 14.5776 8.57411 10.4485L41.5515 43.4258C37.4209 47.1143 31.9726 49.3559 26 49.3559ZM43.4258 41.5515L10.4485 8.57559C14.5776 4.88563 20.0274 2.64406 26 2.64406C38.8986 2.64406 49.3559 13.1013 49.3559 26C49.3559 31.9712 47.1143 37.4224 43.4258 41.5515Z" fill="#DEDEDE"/>
</svg>
