<svg width="32" height="22" viewBox="0 0 32 22" fill="none" xmlns="http://www.w3.org/2000/svg">
  <g>
    <path d="M29.1348 0.756348H2.53842H2.26196C2.05971 0.760213 1.85805 0.779603 1.65877 0.814347C1.45694 0.849736 1.26148 0.914889 1.07878 1.00768C0.720332 1.19182 0.42884 1.48399 0.245529 1.84286C0.152742 2.02556 0.0875885 2.22102 0.0521991 2.42285C0.0197911 2.61974 0.00234148 2.81879 0 3.01831C0 3.10918 0 3.21164 0 3.29477V18.7051C0 18.7979 0 18.8984 0 18.9816C0.00386551 19.1832 0.0232559 19.3842 0.057999 19.5828C0.0933884 19.7847 0.158542 19.9801 0.251329 20.1628C0.344038 20.3421 0.463317 20.5064 0.605123 20.65C0.747753 20.793 0.912201 20.9124 1.09232 21.0038C1.27504 21.0965 1.47049 21.1617 1.67231 21.1971C1.87186 21.229 2.07344 21.2464 2.2755 21.2493H2.55196H29.4616H29.74C29.9414 21.2464 30.1423 21.2289 30.3412 21.1971C30.543 21.1617 30.7385 21.0965 30.9212 21.0038C31.1013 20.9124 31.2658 20.793 31.4084 20.65C31.6957 20.3625 31.8851 19.9918 31.9497 19.5906C31.9832 19.3918 32.0013 19.1908 32.0039 18.9893C32.0039 18.8965 32.0039 18.796 32.0039 18.7128V3.29477C32.0039 3.20197 32.0039 3.10144 32.0039 3.01831C32.0013 2.81616 31.9832 2.6145 31.9497 2.41512C31.8851 2.01385 31.6957 1.64314 31.4084 1.35567C31.2648 1.21386 31.1005 1.09459 30.9212 1.00188C30.7385 0.90909 30.5431 0.843936 30.3412 0.808547C30.1424 0.775838 29.9414 0.758388 29.74 0.756348L29.4616 0.756348H29.1348Z" fill="#231F20"/>
    <path d="M29.1348 1.43872H29.4576C29.5446 1.43872 29.6336 1.43872 29.7206 1.43872C29.8876 1.44027 30.0543 1.45383 30.2194 1.47932C30.3535 1.50284 30.4837 1.54514 30.606 1.60498C30.7213 1.66479 30.8269 1.74171 30.9192 1.83311C31.0111 1.92574 31.088 2.03204 31.1474 2.14824C31.2085 2.27007 31.2508 2.40042 31.273 2.5349C31.2985 2.69998 31.3121 2.86667 31.3136 3.03369C31.3136 3.12069 31.3136 3.20769 31.3136 3.29662C31.3136 3.38556 31.3136 3.51315 31.3136 3.61948V18.3764C31.3136 18.4846 31.3136 18.5929 31.3136 18.7012C31.3136 18.8094 31.3136 18.8752 31.3136 18.9622C31.3124 19.1299 31.2982 19.2973 31.2711 19.4629C31.2505 19.5975 31.2088 19.728 31.1474 19.8495C31.0281 20.0829 30.8379 20.2724 30.6041 20.3909C30.4826 20.4528 30.3521 20.4952 30.2174 20.5165C30.0531 20.5428 29.887 20.5571 29.7206 20.5591H29.4538H2.5403H2.2793C2.11221 20.5573 1.94548 20.5431 1.78051 20.5165C1.64591 20.4948 1.51549 20.4524 1.39385 20.3909C1.27784 20.3322 1.17208 20.2552 1.08065 20.1627C0.988385 20.0712 0.911367 19.9655 0.852523 19.8495C0.791403 19.7277 0.749037 19.5974 0.726859 19.4629C0.701748 19.2984 0.687539 19.1324 0.684326 18.966C0.684326 18.8771 0.684326 18.7901 0.684326 18.7031V3.29856C0.684326 3.21156 0.684326 3.12263 0.684326 3.03563C0.687335 2.86852 0.702194 2.70184 0.728792 2.53684C0.749857 2.40234 0.791594 2.27191 0.852523 2.15018C0.913089 2.03542 0.990653 1.93048 1.08259 1.83891C1.17484 1.7466 1.28121 1.66959 1.39771 1.61078C1.51965 1.55033 1.65 1.50862 1.78437 1.48705C1.94929 1.46003 2.11605 1.44581 2.28317 1.44452C2.37016 1.44452 2.4591 1.44452 2.5461 1.44452H29.1348" fill="white"/>
    <path d="M8.41171 7.67189C8.70479 7.31994 8.85028 6.86822 8.81771 6.41138C8.36815 6.45527 7.95275 6.67059 7.65773 7.01263C7.51125 7.17685 7.39903 7.36865 7.32765 7.57681C7.25628 7.78496 7.22718 8.00527 7.24207 8.22481C7.46669 8.22876 7.68921 8.18093 7.89237 8.08505C8.09554 7.98916 8.2739 7.84779 8.41365 7.67189" fill="#231F20"/>
    <path d="M8.81389 8.31168C8.16623 8.27301 7.61524 8.67901 7.30591 8.67901C6.99658 8.67901 6.53259 8.33101 6.0106 8.34068C5.67775 8.34939 5.35296 8.44497 5.06843 8.61792C4.78391 8.79087 4.54954 9.03519 4.38856 9.32666C3.69257 10.5253 4.2049 12.3039 4.88155 13.2803C5.21988 13.7636 5.60654 14.2894 6.1266 14.2759C6.64666 14.2624 6.81292 13.9569 7.41224 13.9569C8.01157 13.9569 8.18556 14.2759 8.70756 14.2662C9.22955 14.2566 9.58527 13.7829 9.91393 13.2996C10.1469 12.957 10.3293 12.5826 10.4553 12.1879C10.1447 12.052 9.88005 11.8291 9.69342 11.5461C9.50678 11.263 9.4061 10.932 9.40354 10.593C9.4065 10.2925 9.48532 9.99755 9.63268 9.73562C9.78003 9.47369 9.99116 9.25322 10.2465 9.09467C10.083 8.86241 9.86818 8.67095 9.61873 8.53516C9.36928 8.39937 9.09188 8.3229 8.80809 8.31168" fill="#231F20"/>
    <path d="M15.2731 6.96411C16.6805 6.96411 17.6607 7.93076 17.6607 9.34594C17.6607 10.7611 16.6554 11.7374 15.2325 11.7374H13.6743V14.2159H12.5491V6.96411H15.2731ZM13.6743 10.794H14.9657C15.9459 10.794 16.5123 10.2662 16.5123 9.35174C16.5123 8.43729 15.9459 7.9095 14.9715 7.9095H13.6743V10.794Z" fill="#231F20"/>
    <path d="M17.9333 12.7137C17.9333 11.7838 18.6429 11.2502 19.9498 11.1671L21.3514 11.0801V10.6838C21.3514 10.0941 20.9648 9.77317 20.2765 9.77317C19.7081 9.77317 19.2963 10.0651 19.2113 10.5117H18.1963C18.2253 9.5721 19.1107 8.88965 20.3055 8.88965C21.5931 8.88965 22.4321 9.56244 22.4321 10.6084V14.2159H21.392V13.3459H21.3669C21.1992 13.635 20.9566 13.8735 20.6646 14.0362C20.3727 14.1988 20.0422 14.2796 19.7081 14.27C18.6622 14.27 17.9333 13.6475 17.9333 12.7137ZM21.3514 12.2459V11.8379L20.1006 11.9191C19.3969 11.9636 19.0295 12.2265 19.0295 12.6828C19.0295 13.139 19.4162 13.4116 20.0097 13.4116C20.7734 13.4116 21.3514 12.9244 21.3514 12.2459Z" fill="#231F20"/>
    <path d="M23.3928 16.1552V15.2871C23.4644 15.2871 23.6345 15.3064 23.7254 15.3064C24.2222 15.3064 24.4987 15.0957 24.6746 14.5525L24.7751 14.2315L22.8708 8.95361H24.0463L25.3745 13.2359H25.3996L26.7258 8.95361H27.8704L25.8907 14.4964C25.4383 15.7685 24.924 16.1861 23.8259 16.1861C23.681 16.1865 23.5362 16.1762 23.3928 16.1552Z" fill="#231F20"/>
  </g>
</svg>
