<svg width="32" height="22" viewBox="0 0 32 22" fill="none" xmlns="http://www.w3.org/2000/svg">
  <g>
    <path fill-rule="evenodd" clip-rule="evenodd" d="M29.1186 0.766846H2.8642C2.75483 0.766846 2.64528 0.766846 2.5361 0.767425C2.44394 0.768197 2.35196 0.769163 2.25979 0.771673C2.05903 0.77708 1.85653 0.78886 1.65828 0.824584C1.45694 0.860695 1.26952 0.919786 1.08673 1.01286C0.906834 1.1042 0.7424 1.22374 0.599607 1.36625C0.457007 1.50895 0.337401 1.67309 0.246006 1.85307C0.152872 2.03575 0.0937449 2.22306 0.0578051 2.42447C0.0218653 2.62279 0.0100786 2.82497 0.00466831 3.02542C0.00215639 3.11753 0.000997039 3.20945 0.000417365 3.30137C-0.000162309 3.41066 3.09159e-05 3.51996 3.09159e-05 3.62945V18.3669C3.09159e-05 18.4764 -0.000162309 18.5855 0.000417365 18.695C0.000997039 18.7869 0.00215639 18.8791 0.00466831 18.971C0.0100786 19.1712 0.0218653 19.3736 0.0578051 19.5717C0.0937449 19.7731 0.152872 19.9605 0.246006 20.1433C0.337401 20.3231 0.457007 20.4874 0.599607 20.63C0.7424 20.7727 0.906834 20.8922 1.08673 20.9833C1.26952 21.0766 1.45694 21.1357 1.65828 21.172C1.85653 21.2073 2.05903 21.2193 2.25979 21.2247C2.35196 21.2268 2.44394 21.2282 2.5361 21.2286C2.64528 21.2294 2.75483 21.2294 2.8642 21.2294H29.1186C29.2278 21.2294 29.3373 21.2294 29.4465 21.2286C29.5385 21.2282 29.6305 21.2268 29.723 21.2247C29.9234 21.2193 30.1259 21.2073 30.3245 21.172C30.5257 21.1357 30.7131 21.0766 30.8961 20.9833C31.076 20.8922 31.24 20.7727 31.383 20.63C31.5254 20.4874 31.645 20.3231 31.7366 20.1433C31.8299 19.9605 31.8891 19.7731 31.9248 19.5717C31.9607 19.3736 31.9723 19.1712 31.9777 18.971C31.9803 18.8791 31.9814 18.7869 31.982 18.695C31.9828 18.5855 31.9828 18.4764 31.9828 18.3669V3.62945C31.9828 3.51996 31.9828 3.41066 31.982 3.30137C31.9814 3.20945 31.9803 3.11753 31.9777 3.02542C31.9723 2.82497 31.9607 2.62279 31.9248 2.42447C31.8891 2.22306 31.8299 2.03575 31.7366 1.85307C31.645 1.67309 31.5254 1.50895 31.383 1.36625C31.24 1.22374 31.076 1.1042 30.8961 1.01286C30.7131 0.919786 30.5257 0.860695 30.3245 0.824584C30.1259 0.78886 29.9234 0.77708 29.723 0.771673C29.6305 0.769163 29.5385 0.768197 29.4465 0.767425C29.3373 0.766846 29.2278 0.766846 29.1186 0.766846Z" fill="#3C4043"/>
    <path fill-rule="evenodd" clip-rule="evenodd" d="M29.1185 1.44897L29.4415 1.44955C29.5289 1.45013 29.6164 1.4511 29.7043 1.45361C29.8574 1.45766 30.0365 1.46597 30.2034 1.4959C30.3483 1.52197 30.4701 1.56175 30.5868 1.62103C30.7021 1.67954 30.8076 1.7564 30.8998 1.84832C30.9924 1.94101 31.0693 2.04664 31.1286 2.16308C31.1877 2.27895 31.2271 2.39983 31.2532 2.54582C31.283 2.71092 31.2913 2.89032 31.2953 3.04423C31.2979 3.13093 31.299 3.21783 31.2994 3.30685C31.3002 3.41441 31.3002 3.52178 31.3002 3.62953V18.367C31.3002 18.4748 31.3002 18.5821 31.2994 18.6918C31.299 18.7787 31.2979 18.8656 31.2953 18.9527C31.2913 19.1062 31.283 19.2856 31.2528 19.4525C31.2271 19.5965 31.1877 19.7174 31.1282 19.8339C31.0691 19.9501 30.9924 20.0555 30.9002 20.1477C30.8074 20.2403 30.7023 20.3168 30.5856 20.3759C30.4697 20.435 30.3483 20.4748 30.2048 20.5005C30.0344 20.5308 29.8479 20.5393 29.7074 20.5429C29.6191 20.5451 29.5312 20.5462 29.441 20.5466C29.3337 20.5474 29.2259 20.5474 29.1185 20.5474H2.86407C2.86272 20.5474 2.86137 20.5474 2.85982 20.5474C2.75374 20.5474 2.64727 20.5474 2.53926 20.5466C2.45115 20.5462 2.36323 20.5451 2.27822 20.5431C2.13446 20.5393 1.9478 20.5308 1.77892 20.5007C1.634 20.4748 1.51266 20.435 1.39518 20.3751C1.27963 20.3166 1.17452 20.2402 1.08177 20.1473C0.989793 20.0555 0.913277 19.9503 0.85415 19.8339C0.79483 19.7176 0.755219 19.5963 0.729133 19.4505C0.699184 19.2839 0.690875 19.1055 0.686624 18.9527C0.684305 18.8654 0.683339 18.778 0.68276 18.6912L0.682373 18.4348V3.56194L0.68276 3.30608C0.683339 3.2186 0.684305 3.13132 0.686624 3.04403C0.690875 2.89109 0.699184 2.71247 0.72952 2.54447C0.755219 2.40022 0.79483 2.27875 0.854343 2.16192C0.913083 2.04645 0.989794 1.94101 1.08215 1.8487C1.17432 1.7564 1.28002 1.67993 1.39614 1.62084C1.51227 1.56156 1.634 1.52197 1.77892 1.4959C1.94587 1.46597 2.12499 1.45766 2.27841 1.45361C2.36575 1.4511 2.45328 1.45013 2.54004 1.44955L2.86407 1.44897H29.1185Z" fill="#FFFFFE"/>
    <path d="M15.3983 11.4707V14.3872H14.4871V7.18792H16.9037C17.4867 7.17644 18.0527 7.40034 18.4658 7.81369C19.2921 8.59447 19.3431 9.90917 18.5677 10.7531C18.5337 10.7875 18.4998 10.822 18.4658 10.8564C18.0413 11.2641 17.5206 11.4707 16.9037 11.4707H15.3983ZM15.3983 8.07204V10.5866H16.9264C17.266 10.5981 17.5942 10.4603 17.8263 10.2134C18.3017 9.71397 18.2904 8.91023 17.798 8.42798C17.5659 8.19834 17.2546 8.07204 16.9264 8.07204H15.3983Z" fill="#3C4043"/>
    <path d="M21.2222 9.30054C21.8957 9.30054 22.4277 9.48425 22.8182 9.84593C23.2087 10.2076 23.4011 10.7128 23.4011 11.3501V14.3871H22.5296V13.7039H22.4899C22.1107 14.2665 21.6127 14.5478 20.9845 14.5478C20.4524 14.5478 19.9997 14.3871 19.6431 14.0656C19.2922 13.7671 19.0941 13.325 19.1054 12.86C19.1054 12.349 19.2979 11.9471 19.6771 11.6429C20.0563 11.3386 20.5656 11.1893 21.1995 11.1893C21.7429 11.1893 22.1843 11.2927 22.5352 11.4879V11.2754C22.5352 10.9597 22.3994 10.6612 22.1617 10.4545C21.9183 10.2363 21.607 10.1158 21.2844 10.1158C20.775 10.1158 20.3732 10.3339 20.0789 10.7702L19.2752 10.2593C19.7054 9.62203 20.3562 9.30054 21.2222 9.30054ZM20.0449 12.8772C20.0449 13.1183 20.1581 13.3422 20.3449 13.48C20.5487 13.6408 20.7977 13.7269 21.0524 13.7211C21.4372 13.7211 21.8051 13.5661 22.0768 13.2905C22.3767 13.0035 22.5296 12.6648 22.5296 12.2744C22.2466 12.0447 21.8504 11.9299 21.341 11.9357C20.9731 11.9357 20.6619 12.0275 20.4128 12.2055C20.1695 12.3835 20.0449 12.6074 20.0449 12.8772Z" fill="#3C4043"/>
    <path fill-rule="evenodd" clip-rule="evenodd" d="M28.4043 9.46143L25.3594 16.5516H24.4199L25.5518 14.0715L23.554 9.46143H24.5444L25.9876 12.9979H26.0046L27.4139 9.46143H28.4043Z" fill="#3C4043"/>
    <path fill-rule="evenodd" clip-rule="evenodd" d="M11.7138 10.8392C11.7138 10.5579 11.6912 10.2765 11.6459 10.001H7.80298V11.5912H10.0046C9.91404 12.1022 9.61973 12.5615 9.1896 12.8485V13.8819H10.5026C11.2724 13.1643 11.7138 12.1022 11.7138 10.8392Z" fill="#4285F4"/>
    <path fill-rule="evenodd" clip-rule="evenodd" d="M7.80298 14.8808C8.90096 14.8808 9.82914 14.5134 10.5026 13.8819L9.1896 12.8485C8.82172 13.1011 8.35197 13.2446 7.80298 13.2446C6.73897 13.2446 5.83908 12.5155 5.51648 11.5396H4.16382V12.6074C4.8543 14.0025 6.26355 14.8808 7.80298 14.8808Z" fill="#34A853"/>
    <path fill-rule="evenodd" clip-rule="evenodd" d="M5.51644 11.5397C5.34665 11.0287 5.34665 10.4718 5.51644 9.95516V8.89307H4.16377C3.58083 10.0585 3.58083 11.4363 4.16377 12.6018L5.51644 11.5397Z" fill="#FBBC04"/>
    <path fill-rule="evenodd" clip-rule="evenodd" d="M7.80298 8.24997C8.38593 8.23848 8.94624 8.46238 9.36505 8.87L10.5309 7.68735C9.78953 6.98694 8.81606 6.60229 7.80298 6.61378C6.26355 6.61378 4.8543 7.49789 4.16382 8.89296L5.51648 9.96079C5.83908 8.97908 6.73897 8.24997 7.80298 8.24997Z" fill="#EA4335"/>
  </g>
</svg>
