<svg width="32" height="28" viewBox="0 0 32 28" fill="none" xmlns="http://www.w3.org/2000/svg">
  <path d="M10.9858 23.7931V22.485C10.9934 22.3753 10.9775 22.2652 10.9393 22.1621C10.901 22.059 10.8412 21.9652 10.7638 21.887C10.6865 21.8088 10.5933 21.748 10.4906 21.7087C10.3879 21.6693 10.278 21.6523 10.1682 21.6588C10.0241 21.6493 9.88012 21.6787 9.75127 21.7439C9.62242 21.8091 9.51344 21.9077 9.43569 22.0294C9.36482 21.9114 9.26341 21.8146 9.14216 21.7494C9.02092 21.6842 8.88432 21.6529 8.74677 21.6588C8.62686 21.6527 8.50745 21.6781 8.40038 21.7324C8.29331 21.7867 8.20228 21.868 8.13633 21.9683V21.7111H7.68286V23.7931H8.14069V22.6398C8.13055 22.5685 8.13638 22.4958 8.15779 22.427C8.17919 22.3582 8.21563 22.295 8.26445 22.242C8.31328 22.189 8.37327 22.1475 8.4401 22.1205C8.50692 22.0936 8.57891 22.0818 8.65084 22.0861C8.9517 22.0861 9.10431 22.2823 9.10431 22.6355V23.7931H9.56214V22.6398C9.55279 22.5686 9.5592 22.4962 9.5809 22.4278C9.60261 22.3593 9.63907 22.2965 9.68773 22.2437C9.73638 22.1908 9.79605 22.1494 9.8625 22.1221C9.92894 22.0949 10.0006 22.0826 10.0723 22.0861C10.3819 22.0861 10.5301 22.2823 10.5301 22.6355V23.7931H10.9858ZM13.5365 22.7532V21.7133H13.0787V21.9662C13.0018 21.8669 12.9024 21.7875 12.7886 21.7344C12.6749 21.6813 12.5501 21.6561 12.4247 21.661C12.1355 21.661 11.8583 21.7758 11.6539 21.9802C11.4494 22.1847 11.3346 22.4619 11.3346 22.751C11.3346 23.0401 11.4494 23.3174 11.6539 23.5218C11.8583 23.7262 12.1355 23.8411 12.4247 23.8411C12.5501 23.8459 12.6749 23.8207 12.7886 23.7676C12.9024 23.7145 13.0018 23.6351 13.0787 23.5359V23.7888H13.5322L13.5365 22.7532ZM11.8513 22.7532C11.8585 22.6305 11.9015 22.5126 11.9748 22.414C12.0482 22.3155 12.1488 22.2405 12.2643 22.1984C12.3797 22.1563 12.505 22.1488 12.6246 22.177C12.7442 22.2051 12.853 22.2677 12.9376 22.3569C13.0221 22.4461 13.0787 22.558 13.1004 22.679C13.1221 22.8 13.108 22.9246 13.0597 23.0377C13.0114 23.1507 12.9312 23.2471 12.8288 23.3151C12.7264 23.3831 12.6064 23.4197 12.4835 23.4203C12.3967 23.4223 12.3105 23.4062 12.2303 23.373C12.1501 23.3398 12.0777 23.2902 12.0178 23.2274C11.9579 23.1646 11.9117 23.09 11.8823 23.0083C11.8529 22.9267 11.8408 22.8398 11.8469 22.7532H11.8513ZM23.225 21.6631C23.3743 21.6627 23.5223 21.6909 23.6611 21.746C23.7935 21.799 23.9142 21.8775 24.0164 21.9771C24.1173 22.0757 24.1974 22.1936 24.2519 22.3237C24.3658 22.6032 24.3658 22.9162 24.2519 23.1958C24.1974 23.3259 24.1173 23.4438 24.0164 23.5424C23.9142 23.6419 23.7935 23.7205 23.6611 23.7735C23.3736 23.8852 23.0547 23.8852 22.7672 23.7735C22.6354 23.7205 22.5154 23.642 22.414 23.5424C22.3141 23.4434 22.2348 23.3256 22.1807 23.1958C22.0671 22.9162 22.0671 22.6033 22.1807 22.3237C22.2348 22.1939 22.3141 22.0761 22.414 21.9771C22.5154 21.8775 22.6354 21.799 22.7672 21.746C22.9109 21.6864 23.0651 21.656 23.2207 21.6566L23.225 21.6631ZM23.225 22.0992C23.1362 22.0979 23.0481 22.1142 22.9656 22.1471C22.8879 22.1783 22.8174 22.225 22.7585 22.2845C22.6984 22.3471 22.6516 22.4212 22.6211 22.5025C22.5545 22.6766 22.5545 22.8691 22.6211 23.0432C22.6516 23.1244 22.6983 23.1986 22.7585 23.2612C22.8174 23.3207 22.8879 23.3674 22.9656 23.3985C23.1317 23.4635 23.3162 23.4635 23.4823 23.3985C23.5637 23.3684 23.638 23.3216 23.7003 23.2612C23.7606 23.1987 23.8073 23.1245 23.8377 23.0432C23.9043 22.8691 23.9043 22.6766 23.8377 22.5025C23.8073 22.4212 23.7606 22.3469 23.7003 22.2845C23.638 22.224 23.5637 22.1772 23.4823 22.1471C23.4 22.1095 23.3111 22.0887 23.2207 22.0861L23.225 22.0992ZM16.0001 22.7532C16.0001 22.0992 15.5946 21.6631 15.0125 21.6631C14.7234 21.6672 14.4477 21.7859 14.2461 21.9932C14.0446 22.2005 13.9336 22.4794 13.9377 22.7685C13.9417 23.0576 14.0604 23.3332 14.2677 23.5348C14.475 23.7363 14.7539 23.8473 15.043 23.8433C15.3534 23.8539 15.6568 23.7499 15.8954 23.5511L15.6774 23.2154C15.5053 23.3534 15.292 23.4302 15.0713 23.4334C14.9214 23.4463 14.7724 23.4002 14.656 23.3049C14.5395 23.2097 14.4649 23.0727 14.4478 22.9232H15.9935C16.0001 22.8687 16.0001 22.8142 16.0001 22.7532ZM14.45 22.5701C14.4584 22.4317 14.5201 22.3019 14.6221 22.208C14.7242 22.1141 14.8586 22.0634 14.9972 22.0665C15.0651 22.065 15.1325 22.0769 15.1958 22.1016C15.259 22.1262 15.3168 22.1631 15.3658 22.21C15.4148 22.257 15.454 22.3132 15.4813 22.3753C15.5086 22.4375 15.5234 22.5044 15.5248 22.5722L14.45 22.5701ZM17.9077 22.243C17.7086 22.1284 17.4834 22.0668 17.2536 22.0643C17.0051 22.0643 16.8569 22.1558 16.8569 22.3084C16.8569 22.4611 17.0138 22.4872 17.21 22.5134L17.4281 22.5439C17.8815 22.6093 18.1562 22.8012 18.1562 23.1674C18.1562 23.5337 17.8074 23.8476 17.2079 23.8476C16.8865 23.8562 16.5709 23.7614 16.3075 23.5773L16.5255 23.2241C16.7256 23.3725 16.9697 23.4493 17.2188 23.4421C17.5283 23.4421 17.694 23.3506 17.694 23.1892C17.694 23.0715 17.5763 23.0061 17.3278 22.9712L17.1098 22.9407C16.6432 22.8753 16.3903 22.666 16.3903 22.3259C16.3903 21.9117 16.7304 21.6588 17.2624 21.6588C17.5601 21.6488 17.8544 21.7245 18.1104 21.8768L17.9077 22.243ZM20.0878 22.1253H19.3487V23.065C19.3487 23.283 19.4229 23.4138 19.6496 23.4138C19.7911 23.4091 19.9291 23.3686 20.0508 23.2961L20.1816 23.6841C20.0116 23.7902 19.8151 23.8461 19.6147 23.8454C19.0784 23.8454 18.8909 23.5577 18.8909 23.0737V22.1253H18.468V21.7111H18.8909V21.0789H19.3487V21.7111H20.0878V22.1253ZM21.6553 21.6588C21.7653 21.6592 21.8744 21.6784 21.978 21.7155L21.8385 22.1515C21.7484 22.1156 21.652 22.0978 21.555 22.0992C21.2586 22.0992 21.119 22.291 21.119 22.6355V23.8018H20.6656V21.7198H21.1147V21.9727C21.1703 21.8771 21.2507 21.7983 21.3474 21.7446C21.4441 21.6909 21.5535 21.6642 21.6641 21.6675L21.6553 21.6588ZM24.7904 23.4901C24.8187 23.4897 24.8469 23.4949 24.8732 23.5053C24.8983 23.5156 24.9212 23.5303 24.9408 23.5489C24.96 23.5677 24.9755 23.5899 24.9866 23.6143C24.9976 23.6398 25.0033 23.6673 25.0033 23.695C25.0033 23.7228 24.9976 23.7502 24.9866 23.7757C24.9755 23.8001 24.96 23.8223 24.9408 23.8411C24.9212 23.8597 24.8983 23.8745 24.8732 23.8847C24.8471 23.8962 24.8189 23.9021 24.7904 23.9021C24.749 23.9018 24.7086 23.8898 24.6739 23.8674C24.6392 23.845 24.6115 23.8132 24.5942 23.7757C24.5832 23.7502 24.5776 23.7227 24.5776 23.695C24.5776 23.6673 24.5832 23.6398 24.5942 23.6143C24.6053 23.5899 24.6208 23.5677 24.6399 23.5489C24.6596 23.5303 24.6825 23.5156 24.7075 23.5053C24.7305 23.4962 24.7548 23.4911 24.7795 23.4901H24.7904ZM24.7904 23.8585C24.8121 23.8587 24.8337 23.8542 24.8536 23.8454C24.8723 23.8371 24.8894 23.8252 24.9037 23.8106C24.9222 23.7919 24.9359 23.7691 24.9436 23.744C24.9512 23.7189 24.9526 23.6923 24.9477 23.6665C24.9428 23.6407 24.9316 23.6166 24.9152 23.5961C24.8988 23.5756 24.8777 23.5594 24.8536 23.5489C24.8336 23.5402 24.8121 23.5358 24.7904 23.5359C24.7686 23.536 24.7471 23.5404 24.7271 23.5489C24.7076 23.557 24.6898 23.5688 24.6748 23.5838C24.6476 23.6136 24.6324 23.6525 24.6324 23.6928C24.6324 23.7332 24.6476 23.7721 24.6748 23.8018C24.6899 23.8171 24.7079 23.8292 24.7278 23.8375C24.7476 23.8457 24.7689 23.8499 24.7904 23.8498V23.8585ZM24.8034 23.5991C24.8238 23.5981 24.8439 23.6043 24.8601 23.6165C24.8668 23.622 24.8721 23.6291 24.8755 23.6371C24.8789 23.645 24.8804 23.6537 24.8798 23.6623C24.8801 23.6696 24.8789 23.6768 24.8762 23.6835C24.8736 23.6903 24.8696 23.6964 24.8645 23.7016C24.8519 23.713 24.8357 23.7199 24.8187 23.7212L24.8819 23.7931H24.8318L24.7729 23.7212H24.7533V23.7931H24.7119V23.5925L24.8034 23.5991ZM24.7555 23.6362V23.6885H24.8034C24.812 23.691 24.8211 23.691 24.8296 23.6885C24.8311 23.6854 24.8319 23.6821 24.8319 23.6787C24.8319 23.6753 24.8311 23.6719 24.8296 23.6689C24.8311 23.6658 24.8319 23.6624 24.8319 23.659C24.8319 23.6556 24.8311 23.6523 24.8296 23.6492C24.8211 23.6467 24.812 23.6467 24.8034 23.6492L24.7555 23.6362Z" fill="black"/>
  <path d="M19.4336 5.82666H12.5662V18.1684H19.4336V5.82666Z" fill="#7673C0"/>
  <path d="M13.0022 11.9992C13.0009 10.8105 13.2702 9.63699 13.7895 8.56768C14.3089 7.49836 15.0648 6.56124 15.9999 5.82728C14.842 4.91734 13.4516 4.3515 11.9873 4.19443C10.5231 4.03737 9.04426 4.29541 7.71977 4.93907C6.39527 5.58273 5.27858 6.58604 4.49732 7.83433C3.71607 9.08262 3.30176 10.5255 3.30176 11.9981C3.30176 13.4708 3.71607 14.9137 4.49732 16.162C5.27858 17.4102 6.39527 18.4136 7.71977 19.0572C9.04426 19.7009 10.5231 19.9589 11.9873 19.8019C13.4516 19.6448 14.842 19.0789 15.9999 18.169C15.065 17.4353 14.3094 16.4985 13.79 15.4296C13.2707 14.3607 13.0013 13.1876 13.0022 11.9992Z" fill="#EB001B"/>
  <path d="M27.9492 16.8604V16.6162H28.0517V16.5639H27.7922V16.6162H27.8947V16.8691L27.9492 16.8604ZM28.4528 16.8604V16.5552H28.3743L28.2828 16.7732L28.1912 16.5552H28.1105V16.8604H28.1672V16.6315L28.2522 16.8299H28.3111L28.3961 16.6315V16.8626L28.4528 16.8604Z" fill="#00A1DF"/>
  <path d="M28.6971 11.9987C28.6967 13.471 28.2822 14.9136 27.501 16.1615C26.7197 17.4095 25.6031 18.4125 24.2788 19.056C22.9545 19.6995 21.476 19.9575 20.012 19.8005C18.5481 19.6436 17.1578 19.078 16 18.1685C16.9345 17.4341 17.6899 16.497 18.2094 15.4281C18.7289 14.3591 18.9988 13.1861 18.9988 11.9976C18.9988 10.8091 18.7289 9.63608 18.2094 8.56711C17.6899 7.49814 16.9345 6.56111 16 5.82672C17.1578 4.91649 18.5483 4.35038 20.0126 4.19309C21.4769 4.0358 22.9559 4.29368 24.2805 4.93725C25.6052 5.58082 26.7221 6.58411 27.5034 7.83244C28.2848 9.08077 28.6992 10.5238 28.6993 11.9965L28.6971 11.9987Z" fill="#00A1DF"/>
</svg>
