<svg width="32" height="22" viewBox="0 0 32 22" fill="none" xmlns="http://www.w3.org/2000/svg">
  <g>
    <path d="M32 21.1636H0V0.836176H32V21.1636Z" fill="white"/>
    <path d="M0.532959 17.8607H31.4665V20.634H0.532959V17.8607Z" fill="#F9AB0C"/>
    <path d="M0.532959 4.14258H31.4665V1.36925H0.532959V4.14258Z" fill="#1D337A"/>
    <path d="M15.7328 7.19802L14.1023 14.821H12.1302L13.7608 7.19802H15.7328ZM24.0297 12.1204L25.0679 9.25758L25.6651 12.1204H24.0297ZM26.2312 14.821H28.0546L26.4614 7.19802H24.7793C24.4 7.19802 24.0806 7.41788 23.9392 7.75688L20.9799 14.821H23.0512L23.4623 13.6826H25.992L26.2312 14.821ZM21.0827 12.3323C21.0913 10.3206 18.3017 10.209 18.3202 9.31017C18.3263 9.03703 18.5867 8.74605 19.1565 8.6717C19.4389 8.63524 20.2181 8.60589 21.1015 9.01284L21.447 7.39565C20.9723 7.22407 20.3618 7.05879 19.6023 7.05879C17.6526 7.05879 16.2811 8.09432 16.2701 9.57847C16.2577 10.676 17.25 11.2879 17.9959 11.6533C18.7649 12.0269 19.0227 12.2667 19.019 12.6004C19.0137 13.1118 18.4055 13.3382 17.8396 13.3467C16.8475 13.3623 16.2725 13.0787 15.8141 12.865L15.4562 14.5362C15.9177 14.7474 16.7682 14.9312 17.6486 14.9407C19.7212 14.9407 21.0766 13.9172 21.0827 12.3323ZM12.9149 7.19802L9.71951 14.821H7.63502L6.06246 8.73731C5.9672 8.36324 5.8841 8.22574 5.59416 8.0677C5.11993 7.81001 4.33699 7.56915 3.64868 7.41927L3.69522 7.19802H7.05105C7.47849 7.19802 7.86304 7.48245 7.96083 7.97482L8.79151 12.3863L10.8431 7.19802H12.9149Z" fill="#1D337A"/>
  </g>
</svg>
