<svg viewBox="0 0 16 16" xmlns="http://www.w3.org/2000/svg">
  <g clip-path="url(#clip0)">
    <path d="M14.7599 1.68833L0.586945 7.15366C-0.380299 7.54215 -0.374703 8.08173 0.409484 8.32234L4.04824 9.45746L12.4673 4.14561C12.8654 3.9034 13.2291 4.0337 12.9301 4.29909L6.10903 10.4551H6.10743L6.10903 10.4559L5.85803 14.2065C6.22574 14.2065 6.38801 14.0379 6.59425 13.8388L8.36167 12.1202L12.038 14.8357C12.7159 15.209 13.2027 15.0171 13.3714 14.2081L15.7847 2.83463C16.0317 1.84421 15.4066 1.39576 14.7599 1.68833Z"/>
  </g>
  <defs>
    <clipPath id="clip0">
      <rect width="16" height="16" fill="white"/>
    </clipPath>
  </defs>
</svg>
